module gitlab.com/metinisov24/envmanager

go 1.19

require (
	github.com/joho/godotenv v1.5.1
	github.com/rs/zerolog v1.29.1
)

require (
	github.com/mattn/go-colorable v0.1.12 // indirect
	github.com/mattn/go-isatty v0.0.14 // indirect
	golang.org/x/sys v0.0.0-20210927094055-39ccf1dd6fa6 // indirect
)
